[
    {
        "projeto": {
            "id": 1
        },
        "ano": 2015,
        "direto": 20,
        "indireto": 200,
        "tipo": 1,
        "dataUltimaAlteracao": 1203158,
        "usuarioResponsavel": {
            "id": 1
        }
    }
]