[
    {
        "usuarioInvestimento": {
            "id": 1
        },
        "empresa": {
            "id": 1
        },
        "unidade": {
            "id": 1
        },
        "nome": "Nome da empresa",
        "descricao": "Descricao da empresa",
        "situacao": {
            "id": 1
        },
        "prospeccaoAtiva": true,
        "tipo": 1,
        "cadeiaProdutiva": {
            "id": 1
        },
        "informacaoPrimeiroContato": "teste",
        "usuarioResponsavel": {
            "id": 1
        },
        "anexos": [{}],
        "estagios": [{}],
        "empregos": [{}],
        "dataCadastro": "2014-07-04"
    }
]