[
    {
        "nome": "nome",
        "email": "teste@teste.com",
        "telefone": "10003333",
        "endereco": {
            "id": "1"
        },
        "empresa": {
            "id": 1
        },
        "contatosPessoa": [{
                "id": 1
            }]
    }
]