[{
	"id": 1,
	"descricao": "Administrador de TI"
}, {
	"id": 3,
	"descricao": "Analista de Informação"	
}, {
	"id": 4,
	"descricao": "Analista de Portfólio"	
}, {
	"id": 5,
	"descricao": "Analista de Promoção"	
}, {
	"id": 6,
	"descricao": "Diretor"	
}, {
	"id": 7,
	"descricao": "Gerente"	
}, {
	"id": 8,
	"descricao": "Secretaria Geral"	
}]

